source-sc/sc_final_test30.vcd
$date
	Wed Jun 17 23:57:17 2026
$end
$version
	Icarus Verilog
$end
$timescale
	1ns
$end
$scope module sc_final_wave_tb $end
$var wire 32 ! reg_data [31:0] $end
$var reg 1 " clk $end
$var reg 1024 # imem_file [1023:0] $end
$var reg 5 $ reg_sel [4:0] $end
$var reg 1 % rstn $end
$var reg 1024 & vcd_file [1023:0] $end
$var integer 32 ' cycles [31:0] $end
$var integer 32 ( i [31:0] $end
$scope module dut $end
$var wire 1 " clk $end
$var wire 5 ) reg_sel [4:0] $end
$var wire 1 * reset $end
$var wire 1 % rstn $end
$var wire 32 + reg_data [31:0] $end
$var wire 32 , instr [31:0] $end
$var wire 32 - dm_dout [31:0] $end
$var wire 32 . dm_din [31:0] $end
$var wire 32 / dm_addr [31:0] $end
$var wire 32 0 PC [31:0] $end
$var wire 1 1 MemWrite $end
$scope module U_DM $end
$var wire 1 " clk $end
$var wire 32 2 din [31:0] $end
$var wire 32 3 addr [31:0] $end
$var wire 1 1 DMWr $end
$var reg 32 4 dout [31:0] $end
$upscope $end
$scope module U_SCCPU $end
$var wire 32 5 Addr_out [31:0] $end
$var wire 32 6 Data_in [31:0] $end
$var wire 32 7 Data_out [31:0] $end
$var wire 1 " clk $end
$var wire 5 8 reg_sel [4:0] $end
$var wire 1 * reset $end
$var wire 20 9 uimm [19:0] $end
$var wire 12 : simm [11:0] $end
$var wire 5 ; rs2 [4:0] $end
$var wire 5 < rs1 [4:0] $end
$var wire 32 = reg_data [31:0] $end
$var wire 5 > rd [4:0] $end
$var wire 1 1 mem_w $end
$var wire 20 ? jimm [19:0] $end
$var wire 32 @ inst_in [31:0] $end
$var wire 32 A immout [31:0] $end
$var wire 12 B iimm [11:0] $end
$var wire 12 C bimm [11:0] $end
$var wire 32 D aluout [31:0] $end
$var wire 1 E Zero $end
$var wire 2 F WDSel [1:0] $end
$var wire 1 G RegWrite $end
$var wire 32 H RD2 [31:0] $end
$var wire 32 I RD1 [31:0] $end
$var wire 32 J PC_out [31:0] $end
$var wire 7 K Op [6:0] $end
$var wire 3 L NPCOp [2:0] $end
$var wire 32 M NPC [31:0] $end
$var wire 12 N Imm12 [11:0] $end
$var wire 20 O IMM [19:0] $end
$var wire 7 P Funct7 [6:0] $end
$var wire 3 Q Funct3 [2:0] $end
$var wire 6 R EXTOp [5:0] $end
$var wire 32 S B [31:0] $end
$var wire 1 T ALUSrc $end
$var wire 5 U ALUOp [4:0] $end
$var reg 32 V WD [31:0] $end
$scope module U_EXT $end
$var wire 12 W bimm [11:0] $end
$var wire 12 X iimm [11:0] $end
$var wire 20 Y jimm [19:0] $end
$var wire 12 Z simm [11:0] $end
$var wire 20 [ uimm [19:0] $end
$var wire 6 \ EXTOp [5:0] $end
$var reg 32 ] immout [31:0] $end
$upscope $end
$scope module U_NPC $end
$var wire 32 ^ IMM [31:0] $end
$var wire 32 _ RS1 [31:0] $end
$var wire 32 ` PCPLUS4 [31:0] $end
$var wire 32 a PC [31:0] $end
$var wire 3 b NPCOp [2:0] $end
$var reg 32 c NPC [31:0] $end
$upscope $end
$scope module U_PC $end
$var wire 32 d NPC [31:0] $end
$var wire 1 " clk $end
$var wire 1 * rst $end
$var reg 32 e PC [31:0] $end
$upscope $end
$scope module U_RF $end
$var wire 5 f A1 [4:0] $end
$var wire 5 g A2 [4:0] $end
$var wire 5 h A3 [4:0] $end
$var wire 32 i WD [31:0] $end
$var wire 1 " clk $end
$var wire 5 j reg_sel [4:0] $end
$var wire 1 * rst $end
$var wire 32 k reg_data [31:0] $end
$var wire 1 G RFWr $end
$var wire 32 l RD2 [31:0] $end
$var wire 32 m RD1 [31:0] $end
$var integer 32 n i [31:0] $end
$upscope $end
$scope module U_alu $end
$var wire 32 o A [31:0] $end
$var wire 32 p B [31:0] $end
$var wire 1 E Zero $end
$var wire 5 q ALUOp [4:0] $end
$var reg 32 r C [31:0] $end
$upscope $end
$scope module U_ctrl $end
$var wire 3 s Funct3 [2:0] $end
$var wire 7 t Funct7 [6:0] $end
$var wire 7 u Op [6:0] $end
$var wire 1 E Zero $end
$var reg 5 v ALUOp [4:0] $end
$var reg 1 T ALUSrc $end
$var reg 6 w EXTOp [5:0] $end
$var reg 1 1 MemWrite $end
$var reg 3 x NPCOp [2:0] $end
$var reg 1 G RegWrite $end
$var reg 2 y WDSel [1:0] $end
$upscope $end
$upscope $end
$scope module U_imem $end
$var wire 30 z addr [31:2] $end
$var wire 32 { dout [31:0] $end
$upscope $end
$upscope $end
$upscope $end
$enddefinitions $end
#0
$dumpvars
b100011010000000110001010010011 {
b0 z
b0 y
b0 x
b10000 w
b1101 v
b10011 u
b10001 t
b110 s
b1000110100 r
b1101 q
b1000110100 p
b0 o
b100000 n
b0 m
b0 l
b0 k
b0 j
b1000110100 i
b101 h
b10100 g
b0 f
b0 e
b100 d
b100 c
b0 b
b0 a
b100 `
b0 _
b1000110100 ^
b1000110100 ]
b10000 \
b100011010000000110 [
b1000100101 Z
b11000100011010 Y
b1000110100 X
b10100010010 W
b1000110100 V
b1101 U
1T
b1000110100 S
b10000 R
b110 Q
b10001 P
b100011010000000110 O
b1000110100 N
b100 M
b0 L
b10011 K
b0 J
b0 I
b0 H
1G
b0 F
0E
b1000110100 D
b10100010010 C
b1000110100 B
b1000110100 A
b100011010000000110001010010011 @
b11000100011010 ?
b101 >
b0 =
b0 <
b10100 ;
b1000100101 :
b100011010000000110 9
b0 8
b0 7
b0 6
b1000110100 5
b0 4
b1000110100 3
b0 2
01
b0 0
b1000110100 /
b0 .
b0 -
b100011010000000110001010010011 ,
b0 +
1*
b0 )
b10000000 (
b1111000 '
b1110011011000110101111101100110011010010110111001100001011011000101111101110100011001010111001101110100001100110011000000101110011101100110001101100100 &
1%
b0 $
b10111000101110001011110100001101001111010001000100010101111000011100000010111101110100011001010111001101110100011000110110111101100100011001010010111101110100011000010111001101101011001011110101010001100101011100110111010001011111001100110011000001011111010010010110111001110011011101000111001000101110011001000110000101110100 #
1"
b0 !
$end
#5
0"
#10
b1000000000000 V
b1000000000000 i
b1000000000000 /
b1000000000000 3
b1000000000000 5
b1000000000000 D
b1000000000000 r
b1000000000000 S
b1000000000000 p
b1000000000000 A
b1000000000000 ]
b1000000000000 ^
1T
b1 U
b1 q
b1 v
b10 R
b10 \
b10 w
1G
b1 O
b0 N
b110 >
b110 h
b0 ;
b0 g
b1 Q
b1 s
b0 P
b0 t
b110111 K
b110111 u
b100000000000 ?
b100000000000 Y
b11 C
b11 W
b1 9
b1 [
b110 :
b110 Z
b0 B
b0 X
b1001100110111 ,
b1001100110111 @
b1001100110111 {
b1 z
b1000 M
b1000 c
b1000 d
b1000 `
b100 0
b100 J
b100 a
b100 e
1"
0*
0%
#15
0"
#20
b1001000110100 V
b1001000110100 i
b0 A
b0 ]
b0 ^
b1001000110100 /
b1001000110100 3
b1001000110100 5
b1001000110100 D
b1001000110100 r
b1000000000000 .
b1000000000000 2
b1000000000000 7
b1000000000000 H
b1000000000000 l
b1000110100 I
b1000110100 _
b1000110100 m
b1000110100 o
0T
b1101 U
b1101 q
b1101 v
b0 R
b0 \
b0 w
1G
b11000101110 O
b110 N
b101 >
b101 h
b110 ;
b110 g
b101 <
b101 f
b110 Q
b110 s
b110011 K
b110011 u
b10111000000000011 ?
b10111000000000011 Y
b10000000010 C
b10000000010 W
b11000101110 9
b11000101110 [
b101 :
b101 Z
b110 B
b110 X
b11000101110001010110011 ,
b11000101110001010110011 @
b11000101110001010110011 {
b10 z
b1100 M
b1100 c
b1100 d
b1100 `
b1000 0
b1000 J
b1000 a
b1000 e
1"
#25
0"
#30
b10011000011101100101000000000000 V
b10011000011101100101000000000000 i
b10011000011101100101000000000000 A
b10011000011101100101000000000000 ]
b10011000011101100101000000000000 ^
0E
b10011000011101100101000000000000 S
b10011000011101100101000000000000 p
b10011000011101100101000000000000 /
b10011000011101100101000000000000 3
b10011000011101100101000000000000 5
b10011000011101100101000000000000 D
b10011000011101100101000000000000 r
b0 .
b0 2
b0 7
b0 H
b0 l
b10 R
b10 \
b10 w
1T
b1 U
b1 q
b1 v
1G
b10011000011101100101 O
b100110000111 N
b110 >
b110 h
b111 ;
b111 g
b1100 <
b1100 f
b101 Q
b101 s
b1001100 P
b1001100 t
b110111 K
b110111 u
b10110010110011000011 ?
b10110010110011000011 Y
b100011000011 C
b100011000011 W
b10011000011101100101 9
b10011000011101100101 [
b100110000110 :
b100110000110 Z
b100110000111 B
b100110000111 X
b0 I
b0 _
b0 m
b0 o
b10011000011101100101001100110111 ,
b10011000011101100101001100110111 @
b10011000011101100101001100110111 {
b11 z
b10000 M
b10000 c
b10000 d
b10000 `
b1100 0
b1100 J
b1100 a
b1100 e
1"
#35
0"
#40
b1101000101 S
b1101000101 p
b1010101111001 V
b1010101111001 i
b1101000101 A
b1101000101 ]
b1101000101 ^
b1010101111001 /
b1010101111001 3
b1010101111001 5
b1010101111001 D
b1010101111001 r
b1001000110100 .
b1001000110100 2
b1001000110100 7
b1001000110100 H
b1001000110100 l
b1001000110100 I
b1001000110100 _
b1001000110100 m
b1001000110100 o
1T
b11 U
b11 q
b11 v
b10000 R
b10000 \
b10000 w
1G
b110100010100101000 O
b1101000101 N
b111 >
b111 h
b101 ;
b101 g
b101 <
b101 f
b0 Q
b0 s
b11010 P
b11010 t
b10011 K
b10011 u
b10100010110100010 ?
b10100010110100010 Y
b10110100011 C
b10110100011 W
b110100010100101000 9
b110100010100101000 [
b1101000111 :
b1101000111 Z
b1101000101 B
b1101000101 X
b110100010100101000001110010011 ,
b110100010100101000001110010011 @
b110100010100101000001110010011 {
b100 z
b10100 M
b10100 c
b10100 d
b10100 `
b10000 0
b10000 J
b10000 a
b10000 e
1"
#45
0"
#50
b11111111111111111111110000000000 S
b11111111111111111111110000000000 p
b10011000011101100100110000000000 V
b10011000011101100100110000000000 i
b11111111111111111111110000000000 A
b11111111111111111111110000000000 ]
b11111111111111111111110000000000 ^
b10011000011101100100110000000000 /
b10011000011101100100110000000000 3
b10011000011101100100110000000000 5
b10011000011101100100110000000000 D
b10011000011101100100110000000000 r
b0 .
b0 2
b0 7
b0 H
b0 l
b10011000011101100101000000000000 I
b10011000011101100101000000000000 _
b10011000011101100101000000000000 m
b10011000011101100101000000000000 o
1T
b11 U
b11 q
b11 v
b10000 R
b10000 \
b10000 w
1G
b11000000000000110000 O
b110000000000 N
b1000 >
b1000 h
b0 ;
b0 g
b110 <
b110 f
b1100000 P
b1100000 t
b10011000001000000000 ?
b10011000001000000000 Y
b101000000100 C
b101000000100 W
b11000000000000110000 9
b11000000000000110000 [
b110000001000 :
b110000001000 Z
b110000000000 B
b110000000000 X
b11000000000000110000010000010011 ,
b11000000000000110000010000010011 @
b11000000000000110000010000010011 {
b101 z
b11000 M
b11000 c
b11000 d
b11000 `
b10100 0
b10100 J
b10100 a
b10100 e
1"
#55
0"
#60
b11110111100 S
b11110111100 p
b1010110001000 V
b1010110001000 i
b11110111100 A
b11110111100 ]
b11110111100 ^
b1010110001000 /
b1010110001000 3
b1010110001000 5
b1010110001000 D
b1010110001000 r
b1001000110100 I
b1001000110100 _
b1001000110100 m
b1001000110100 o
1T
b1100 U
b1100 q
b1100 v
b10000 R
b10000 \
b10000 w
1G
b1111011110000101100 O
b11110111100 N
b1001 >
b1001 h
b11100 ;
b11100 g
b101 <
b101 f
b100 Q
b100 s
b111101 P
b111101 t
b10110001111011110 ?
b10110001111011110 Y
b11111010100 C
b11111010100 W
b1111011110000101100 9
b1111011110000101100 [
b11110101001 :
b11110101001 Z
b11110111100 B
b11110111100 X
b1111011110000101100010010010011 ,
b1111011110000101100010010010011 @
b1111011110000101100010010010011 {
b110 z
b11100 M
b11100 c
b11100 d
b11100 `
b11000 0
b11000 J
b11000 a
b11000 e
1"
#65
0"
#70
b110100 S
b110100 p
b0 V
b0 i
b110100 A
b110100 ]
b110100 ^
1E
b0 /
b0 3
b0 5
b0 D
b0 r
b1010101111001 I
b1010101111001 _
b1010101111001 m
b1010101111001 o
1T
b1011 U
b1011 q
b1011 v
b10000 R
b10000 \
b10000 w
1G
b11010000111011 O
b110100 N
b11 >
b11 h
b10100 ;
b10100 g
b111 <
b111 f
b11 Q
b11 s
b1 P
b1 t
b11101100000011010 ?
b11101100000011010 Y
b10000010001 C
b10000010001 W
b11010000111011 9
b11010000111011 [
b100011 :
b100011 Z
b110100 B
b110100 X
b11010000111011000110010011 ,
b11010000111011000110010011 @
b11010000111011000110010011 {
b111 z
b100000 M
b100000 c
b100000 d
b100000 `
b11100 0
b11100 J
b11100 a
b11100 e
1"
#75
0"
#80
b1 V
b1 i
0E
b1 /
b1 3
b1 5
b1 D
b1 r
b11111111111111111111111111111111 S
b11111111111111111111111111111111 p
b11111111111111111111111111111111 A
b11111111111111111111111111111111 ]
b11111111111111111111111111111111 ^
b1001000110100 I
b1001000110100 _
b1001000110100 m
b1001000110100 o
1T
b1011 U
b1011 q
b1011 v
b10000 R
b10000 \
b10000 w
1G
b11111111111100101011 O
b111111111111 N
b100 >
b100 h
b11111 ;
b11111 g
b101 <
b101 f
b1111111 P
b1111111 t
b10010101111111111111 ?
b10010101111111111111 Y
b101111110010 C
b101111110010 W
b11111111111100101011 9
b11111111111100101011 [
b111111100100 :
b111111100100 Z
b111111111111 B
b111111111111 X
b11111111111100101011001000010011 ,
b11111111111100101011001000010011 @
b11111111111100101011001000010011 {
b1000 z
b100100 M
b100100 c
b100100 d
b100100 `
b100000 0
b100000 J
b100000 a
b100000 e
1"
#85
0"
#90
b11101100101 S
b11101100101 p
b10100000000 V
b10100000000 i
b11101100101 A
b11101100101 ]
b11101100101 ^
b10100000000 /
b10100000000 3
b10100000000 5
b10100000000 D
b10100000000 r
b1001000110100 .
b1001000110100 2
b1001000110100 7
b1001000110100 H
b1001000110100 l
b1010110001000 I
b1010110001000 _
b1010110001000 m
b1010110001000 o
1T
b1110 U
b1110 q
b1110 v
b10000 R
b10000 \
b10000 w
1G
b1110110010101001111 O
b11101100101 N
b10010 >
b10010 h
b101 ;
b101 g
b1001 <
b1001 f
b111 Q
b111 s
b111011 P
b111011 t
b100111111110110010 ?
b100111111110110010 Y
b1110111001 C
b1110111001 W
b1110110010101001111 9
b1110110010101001111 [
b11101110010 :
b11101110010 Z
b11101100101 B
b11101100101 X
b1110110010101001111100100010011 ,
b1110110010101001111100100010011 @
b1110110010101001111100100010011 {
b1001 z
b101000 M
b101000 c
b101000 d
b101000 `
b100100 0
b100100 J
b100100 a
b100100 e
1"
#95
0"
#100
b100100011 S
b100100011 p
b1 V
b1 i
b100100011 A
b100100011 ]
b100100011 ^
b1 /
b1 3
b1 5
b1 D
b1 r
b0 .
b0 2
b0 7
b0 H
b0 l
b10011000011101100101000000000000 I
b10011000011101100101000000000000 _
b10011000011101100101000000000000 m
b10011000011101100101000000000000 o
1T
b1010 U
b1010 q
b1010 v
b10000 R
b10000 \
b10000 w
1G
b10010001100110010 O
b100100011 N
b10100 >
b10100 h
b11 ;
b11 g
b110 <
b110 f
b10 Q
b10 s
b1001 P
b1001 t
b11001010010010001 ?
b11001010010010001 Y
b10011010 C
b10011010 W
b10010001100110010 9
b10010001100110010 [
b100110100 :
b100110100 Z
b100100011 B
b100100011 X
b10010001100110010101000010011 ,
b10010001100110010101000010011 @
b10010001100110010101000010011 {
b1010 z
b101100 M
b101100 c
b101100 d
b101100 `
b101000 0
b101000 J
b101000 a
b101000 e
1"
#105
0"
#110
b10011000011101100011110111001100 V
b10011000011101100011110111001100 i
b0 A
b0 ]
b0 ^
b1001000110100 S
b1001000110100 p
b10011000011101100011110111001100 /
b10011000011101100011110111001100 3
b10011000011101100011110111001100 5
b10011000011101100011110111001100 D
b10011000011101100011110111001100 r
b1001000110100 .
b1001000110100 2
b1001000110100 7
b1001000110100 H
b1001000110100 l
0T
b100 U
b100 q
b100 v
b0 R
b0 \
b0 w
1G
b1000000010100110000 O
b10000000101 N
b10011 >
b10011 h
b101 ;
b101 g
b0 Q
b0 s
b100000 P
b100000 t
b110011 K
b110011 u
b11000011000000010 ?
b11000011000000010 Y
b11000001001 C
b11000001001 W
b1000000010100110000 9
b1000000010100110000 [
b10000010011 :
b10000010011 Z
b10000000101 B
b10000000101 X
b1000000010100110000100110110011 ,
b1000000010100110000100110110011 @
b1000000010100110000100110110011 {
b1011 z
b110000 M
b110000 c
b110000 d
b110000 `
b101100 0
b101100 J
b101100 a
b101100 e
1"
#115
0"
#120
b10011000011101100101000000000001 V
b10011000011101100101000000000001 i
b10011000011101100101000000000000 S
b10011000011101100101000000000000 p
b10011000011101100101000000000001 /
b10011000011101100101000000000001 3
b10011000011101100101000000000001 5
b10011000011101100101000000000001 D
b10011000011101100101000000000001 r
b10011000011101100101000000000000 .
b10011000011101100101000000000000 2
b10011000011101100101000000000000 7
b10011000011101100101000000000000 H
b10011000011101100101000000000000 l
b1 I
b1 _
b1 m
b1 o
b1100 U
b1100 q
b1100 v
1G
b11010100100 O
b110 N
b10101 >
b10101 h
b110 ;
b110 g
b10100 <
b10100 f
b100 Q
b100 s
b0 P
b0 t
b1010010000000000011 ?
b1010010000000000011 Y
b10000001010 C
b10000001010 W
b11010100100 9
b11010100100 [
b10101 :
b10101 Z
b110 B
b110 X
b11010100100101010110011 ,
b11010100100101010110011 @
b11010100100101010110011 {
b1100 z
b110100 M
b110100 c
b110100 d
b110100 `
b110000 0
b110000 J
b110000 a
b110000 e
1"
#125
0"
#130
b10011000011101100101000000000010 V
b10011000011101100101000000000010 i
b1 S
b1 p
b10011000011101100101000000000010 /
b10011000011101100101000000000010 3
b10011000011101100101000000000010 5
b10011000011101100101000000000010 D
b10011000011101100101000000000010 r
b1 .
b1 2
b1 7
b1 H
b1 l
b10011000011101100101000000000001 I
b10011000011101100101000000000001 _
b10011000011101100101000000000001 m
b10011000011101100101000000000001 o
b11 U
b11 q
b11 v
1G
b1010010101000 O
b10100 N
b10110 >
b10110 h
b10100 ;
b10100 g
b10101 <
b10101 f
b0 Q
b0 s
b1010100000000001010 ?
b1010100000000001010 Y
b1011 C
b1011 W
b1010010101000 9
b1010010101000 [
b10110 :
b10110 Z
b10100 B
b10100 X
b1010010101000101100110011 ,
b1010010101000101100110011 @
b1010010101000101100110011 {
b1101 z
b111000 M
b111000 c
b111000 d
b111000 `
b110100 0
b110100 J
b110100 a
b110100 e
1"
#135
0"
#140
b10011000011101100110001000110110 V
b10011000011101100110001000110110 i
b1001000110100 S
b1001000110100 p
b10011000011101100110001000110110 /
b10011000011101100110001000110110 3
b10011000011101100110001000110110 5
b10011000011101100110001000110110 D
b10011000011101100110001000110110 r
b1001000110100 .
b1001000110100 2
b1001000110100 7
b1001000110100 H
b1001000110100 l
b10011000011101100101000000000010 I
b10011000011101100101000000000010 _
b10011000011101100101000000000010 m
b10011000011101100101000000000010 o
b10110110000 O
b101 N
b101 ;
b101 g
b10110 <
b10110 f
b1011000010000000010 ?
b1011000010000000010 Y
b10110110000 9
b10110110000 [
b101 B
b101 X
b10110110000101100110011 ,
b10110110000101100110011 @
b10110110000101100110011 {
b1110 z
b111100 M
b111100 c
b111100 d
b111100 `
b111000 0
b111000 J
b111000 a
b111000 e
1"
#145
0"
#150
b1001000110110 V
b1001000110110 i
b10011000011101100101000000000000 S
b10011000011101100101000000000000 p
b10011000011101100101000000000000 .
b10011000011101100101000000000000 2
b10011000011101100101000000000000 7
b10011000011101100101000000000000 H
b10011000011101100101000000000000 l
b100 U
b100 q
b100 v
1G
b1001000110110 /
b1001000110110 3
b1001000110110 5
b1001000110110 D
b1001000110110 r
b1000000011010110000 O
b10000000110 N
b10111 >
b10111 h
b110 ;
b110 g
b100000 P
b100000 t
b1011000001000000011 ?
b1011000001000000011 Y
b11000001011 C
b11000001011 W
b1000000011010110000 9
b1000000011010110000 [
b10000010111 :
b10000010111 Z
b10000000110 B
b10000000110 X
b10011000011101100110001000110110 I
b10011000011101100110001000110110 _
b10011000011101100110001000110110 m
b10011000011101100110001000110110 o
b1000000011010110000101110110011 ,
b1000000011010110000101110110011 @
b1000000011010110000101110110011 {
b1111 z
b1000000 M
b1000000 c
b1000000 d
b1000000 `
b111100 0
b111100 J
b111100 a
b111100 e
1"
#155
0"
#160
b10011000011101100111001000110110 V
b10011000011101100111001000110110 i
b10011000011101100110001000110110 S
b10011000011101100110001000110110 p
b10011000011101100111001000110110 /
b10011000011101100111001000110110 3
b10011000011101100111001000110110 5
b10011000011101100111001000110110 D
b10011000011101100111001000110110 r
b10011000011101100110001000110110 .
b10011000011101100110001000110110 2
b10011000011101100110001000110110 7
b10011000011101100110001000110110 H
b10011000011101100110001000110110 l
b1001000110110 I
b1001000110110 _
b1001000110110 m
b1001000110110 o
b1101 U
b1101 q
b1101 v
1G
b1011010111110 O
b10110 N
b11001 >
b11001 h
b10110 ;
b10110 g
b10111 <
b10111 f
b110 Q
b110 s
b0 P
b0 t
b1011111000000001011 ?
b1011111000000001011 Y
b10000001100 C
b10000001100 W
b1011010111110 9
b1011010111110 [
b11001 :
b11001 Z
b10110 B
b10110 X
b1011010111110110010110011 ,
b1011010111110110010110011 @
b1011010111110110010110011 {
b10000 z
b1000100 M
b1000100 c
b1000100 d
b1000100 `
b1000000 0
b1000000 J
b1000000 a
b1000000 e
1"
#165
0"
#170
b1000110110 V
b1000110110 i
b1000110110 /
b1000110110 3
b1000110110 5
b1000110110 D
b1000110110 r
b1110 U
b1110 q
b1110 v
1G
b1011010111111 O
b11010 >
b11010 h
b111 Q
b111 s
b1011111100000001011 ?
b1011111100000001011 Y
b1101 C
b1101 W
b1011010111111 9
b1011010111111 [
b11010 :
b11010 Z
b1011010111111110100110011 ,
b1011010111111110100110011 @
b1011010111111110100110011 {
b10001 z
b1001000 M
b1001000 c
b1001000 d
b1001000 `
b1000100 0
b1000100 J
b1000100 a
b1000100 e
1"
#175
0"
#180
b1 V
b1 i
0E
b1000110110 S
b1000110110 p
b1 /
b1 3
b1 5
b1 D
b1 r
b1000110110 .
b1000110110 2
b1000110110 7
b1000110110 H
b1000110110 l
b10011000011101100111001000110110 I
b10011000011101100111001000110110 _
b10011000011101100111001000110110 m
b10011000011101100111001000110110 o
b1010 U
b1010 q
b1010 v
1G
b1101011001010 O
b11010 N
b11011 >
b11011 h
b11010 ;
b11010 g
b11001 <
b11001 f
b10 Q
b10 s
b1100101000000001101 ?
b1100101000000001101 Y
b10000001101 C
b10000001101 W
b1101011001010 9
b1101011001010 [
b11011 :
b11011 Z
b11010 B
b11010 X
b1101011001010110110110011 ,
b1101011001010110110110011 @
b1101011001010110110110011 {
b10010 z
b1001100 M
b1001100 c
b1001100 d
b1001100 `
b1001000 0
b1001000 J
b1001000 a
b1001000 e
1"
#185
0"
#190
b0 V
b0 i
1E
b0 /
b0 3
b0 5
b0 D
b0 r
b1011 U
b1011 q
b1011 v
1G
b1101011001011 O
b11100 >
b11100 h
b11 Q
b11 s
b1100101100000001101 ?
b1100101100000001101 Y
b1110 C
b1110 W
b1101011001011 9
b1101011001011 [
b11100 :
b11100 Z
b1101011001011111000110011 ,
b1101011001011111000110011 @
b1101011001011111000110011 {
b10011 z
b1010000 M
b1010000 c
b1010000 d
b1010000 `
b1001100 0
b1001100 J
b1001100 a
b1001100 e
1"
#195
0"
#200
b100 V
b100 i
b100 A
b100 ]
b100 ^
0E
b100 S
b100 p
b100 /
b100 3
b100 5
b100 D
b100 r
b1 .
b1 2
b1 7
b1 H
b1 l
b0 I
b0 _
b0 m
b0 o
b10000 R
b10000 \
b10000 w
1T
b11 U
b11 q
b11 v
1G
b10000011000 O
b100 N
b11 >
b11 h
b100 ;
b100 g
b11 <
b11 f
b0 Q
b0 s
b10011 K
b10011 u
b1100000000000010 ?
b1100000000000010 Y
b10000000001 C
b10000000001 W
b10000011000 9
b10000011000 [
b11 :
b11 Z
b100 B
b100 X
b10000011000000110010011 ,
b10000011000000110010011 @
b10000011000000110010011 {
b10100 z
b1010100 M
b1010100 c
b1010100 d
b1010100 `
b1010000 0
b1010000 J
b1010000 a
b1010000 e
1"
#205
0"
#210
b10001101100000 V
b10001101100000 i
b0 A
b0 ]
b0 ^
b100 .
b100 2
b100 7
b100 H
b100 l
0T
b1111 U
b1111 q
b1111 v
b0 R
b0 \
b0 w
1G
b10001101100000 /
b10001101100000 3
b10001101100000 5
b10001101100000 D
b10001101100000 r
b1111010001 O
b11 N
b11011 >
b11011 h
b11 ;
b11 g
b11010 <
b11010 f
b1 Q
b1 s
b110011 K
b110011 u
b1101000110000000001 ?
b1101000110000000001 Y
b10000001101 C
b10000001101 W
b1111010001 9
b1111010001 [
b11011 :
b11011 Z
b11 B
b11 X
b1000110110 I
b1000110110 _
b1000110110 m
b1000110110 o
b1111010001110110110011 ,
b1111010001110110110011 @
b1111010001110110110011 {
b10101 z
b1011000 M
b1011000 c
b1011000 d
b1011000 `
b1010100 0
b1010100 J
b1010100 a
b1010100 e
1"
#215
0"
#220
b1001100001110110011100100011 V
b1001100001110110011100100011 i
b1001100001110110011100100011 /
b1001100001110110011100100011 3
b1001100001110110011100100011 5
b1001100001110110011100100011 D
b1001100001110110011100100011 r
b10011000011101100111001000110110 I
b10011000011101100111001000110110 _
b10011000011101100111001000110110 m
b10011000011101100111001000110110 o
b10000 U
b10000 q
b10000 v
1G
b1111001101 O
b11100 >
b11100 h
b11001 <
b11001 f
b101 Q
b101 s
b1100110110000000001 ?
b1100110110000000001 Y
b1110 C
b1110 W
b1111001101 9
b1111001101 [
b11100 :
b11100 Z
b1111001101111000110011 ,
b1111001101111000110011 @
b1111001101111000110011 {
b10110 z
b1011100 M
b1011100 c
b1011100 d
b1011100 `
b1011000 0
b1011000 J
b1011000 a
b1011000 e
1"
#225
0"
#230
b11111001100001110110011100100011 V
b11111001100001110110011100100011 i
b11111001100001110110011100100011 /
b11111001100001110110011100100011 3
b11111001100001110110011100100011 5
b11111001100001110110011100100011 D
b11111001100001110110011100100011 r
b10001 U
b10001 q
b10001 v
1G
b1000000001111001101 O
b10000000011 N
b11101 >
b11101 h
b100000 P
b100000 t
b1100110111000000001 ?
b1100110111000000001 Y
b11000001110 C
b11000001110 W
b1000000001111001101 9
b1000000001111001101 [
b10000011101 :
b10000011101 Z
b10000000011 B
b10000000011 X
b1000000001111001101111010110011 ,
b1000000001111001101111010110011 @
b1000000001111001101111010110011 {
b10111 z
b1100000 M
b1100000 c
b1100000 d
b1100000 `
b1011100 0
b1011100 J
b1011100 a
b1011100 e
1"
#235
0"
#240
b111101110011000000000000000000 V
b111101110011000000000000000000 i
b10000 A
b10000 ]
b10000 ^
b10000 S
b10000 p
b111101110011000000000000000000 /
b111101110011000000000000000000 3
b111101110011000000000000000000 5
b111101110011000000000000000000 D
b111101110011000000000000000000 r
b0 .
b0 2
b0 7
b0 H
b0 l
b10011000011101100011110111001100 I
b10011000011101100011110111001100 _
b10011000011101100011110111001100 m
b10011000011101100011110111001100 o
b10000 R
b10000 \
b10000 w
1T
b1111 U
b1111 q
b1111 v
1G
b1000010011001 O
b10000 N
b11011 >
b11011 h
b10000 ;
b10000 g
b10011 <
b10011 f
b1 Q
b1 s
b0 P
b0 t
b10011 K
b10011 u
b1001100100000001000 ?
b1001100100000001000 Y
b10000001101 C
b10000001101 W
b1000010011001 9
b1000010011001 [
b11011 :
b11011 Z
b10000 B
b10000 X
b1000010011001110110010011 ,
b1000010011001110110010011 @
b1000010011001110110010011 {
b11000 z
b1100100 M
b1100100 c
b1100100 d
b1100100 `
b1100000 0
b1100000 J
b1100000 a
b1100000 e
1"
#245
0"
#250
b100 S
b100 p
b1001100001110110001111011100 V
b1001100001110110001111011100 i
b100 A
b100 ]
b100 ^
b1001100001110110001111011100 /
b1001100001110110001111011100 3
b1001100001110110001111011100 5
b1001100001110110001111011100 D
b1001100001110110001111011100 r
b1 .
b1 2
b1 7
b1 H
b1 l
1T
b10000 U
b10000 q
b10000 v
b10000 R
b10000 \
b10000 w
1G
b10010011101 O
b100 N
b11100 >
b11100 h
b100 ;
b100 g
b101 Q
b101 s
b1001110100000000010 ?
b1001110100000000010 Y
b1110 C
b1110 W
b10010011101 9
b10010011101 [
b11100 :
b11100 Z
b100 B
b100 X
b10010011101111000010011 ,
b10010011101111000010011 @
b10010011101111000010011 {
b11001 z
b1101000 M
b1101000 c
b1101000 d
b1101000 `
b1100100 0
b1100100 J
b1100100 a
b1100100 e
1"
#255
0"
#260
b10000000100 S
b10000000100 p
b11111001100001110110001111011100 V
b11111001100001110110001111011100 i
b10000000100 A
b10000000100 ]
b10000000100 ^
b11111001100001110110001111011100 /
b11111001100001110110001111011100 3
b11111001100001110110001111011100 5
b11111001100001110110001111011100 D
b11111001100001110110001111011100 r
1T
b10001 U
b10001 q
b10001 v
b10000 R
b10000 \
b10000 w
1G
b1000000010010011101 O
b10000000100 N
b11101 >
b11101 h
b100000 P
b100000 t
b1001110101000000010 ?
b1001110101000000010 Y
b11000001110 C
b11000001110 W
b1000000010010011101 9
b1000000010010011101 [
b10000011101 :
b10000011101 Z
b10000000100 B
b10000000100 X
b1000000010010011101111010010011 ,
b1000000010010011101111010010011 @
b1000000010010011101111010010011 {
b11010 z
b1101100 M
b1101100 c
b1101100 d
b1101100 `
b1101000 0
b1101000 J
b1101000 a
b1101000 e
1"
#265
0"
