source-sc/sccpu_sid_sort.vcd
$date
	Thu Jun 18 00:03:05 2026
$end
$version
	Icarus Verilog
$end
$timescale
	1ns
$end
$scope module sccomp_tb $end
$var wire 32 ! reg_data [31:0] $end
$var reg 1 " clk $end
$var reg 5 # reg_sel [4:0] $end
$var reg 1 $ rstn $end
$var integer 32 % errors [31:0] $end
$var integer 32 & i [31:0] $end
$scope module sccomp $end
$var wire 1 " clk $end
$var wire 5 ' reg_sel [4:0] $end
$var wire 1 ( reset $end
$var wire 1 $ rstn $end
$var wire 32 ) reg_data [31:0] $end
$var wire 32 * instr [31:0] $end
$var wire 32 + dm_dout [31:0] $end
$var wire 32 , dm_din [31:0] $end
$var wire 32 - dm_addr [31:0] $end
$var wire 32 . PC [31:0] $end
$var wire 1 / MemWrite $end
$scope module U_DM $end
$var wire 1 " clk $end
$var wire 32 0 din [31:0] $end
$var wire 32 1 addr [31:0] $end
$var wire 1 / DMWr $end
$var reg 32 2 dout [31:0] $end
$upscope $end
$scope module U_SCCPU $end
$var wire 32 3 Addr_out [31:0] $end
$var wire 32 4 Data_in [31:0] $end
$var wire 32 5 Data_out [31:0] $end
$var wire 1 " clk $end
$var wire 5 6 reg_sel [4:0] $end
$var wire 1 ( reset $end
$var wire 20 7 uimm [19:0] $end
$var wire 12 8 simm [11:0] $end
$var wire 5 9 rs2 [4:0] $end
$var wire 5 : rs1 [4:0] $end
$var wire 32 ; reg_data [31:0] $end
$var wire 5 < rd [4:0] $end
$var wire 1 / mem_w $end
$var wire 20 = jimm [19:0] $end
$var wire 32 > inst_in [31:0] $end
$var wire 32 ? immout [31:0] $end
$var wire 12 @ iimm [11:0] $end
$var wire 12 A bimm [11:0] $end
$var wire 32 B aluout [31:0] $end
$var wire 1 C Zero $end
$var wire 2 D WDSel [1:0] $end
$var wire 1 E RegWrite $end
$var wire 32 F RD2 [31:0] $end
$var wire 32 G RD1 [31:0] $end
$var wire 32 H PC_out [31:0] $end
$var wire 7 I Op [6:0] $end
$var wire 3 J NPCOp [2:0] $end
$var wire 32 K NPC [31:0] $end
$var wire 12 L Imm12 [11:0] $end
$var wire 20 M IMM [19:0] $end
$var wire 7 N Funct7 [6:0] $end
$var wire 3 O Funct3 [2:0] $end
$var wire 6 P EXTOp [5:0] $end
$var wire 32 Q B [31:0] $end
$var wire 1 R ALUSrc $end
$var wire 5 S ALUOp [4:0] $end
$var reg 32 T WD [31:0] $end
$scope module U_EXT $end
$var wire 12 U bimm [11:0] $end
$var wire 12 V iimm [11:0] $end
$var wire 20 W jimm [19:0] $end
$var wire 12 X simm [11:0] $end
$var wire 20 Y uimm [19:0] $end
$var wire 6 Z EXTOp [5:0] $end
$var reg 32 [ immout [31:0] $end
$upscope $end
$scope module U_NPC $end
$var wire 32 \ IMM [31:0] $end
$var wire 32 ] RS1 [31:0] $end
$var wire 32 ^ PCPLUS4 [31:0] $end
$var wire 32 _ PC [31:0] $end
$var wire 3 ` NPCOp [2:0] $end
$var reg 32 a NPC [31:0] $end
$upscope $end
$scope module U_PC $end
$var wire 32 b NPC [31:0] $end
$var wire 1 " clk $end
$var wire 1 ( rst $end
$var reg 32 c PC [31:0] $end
$upscope $end
$scope module U_RF $end
$var wire 5 d A1 [4:0] $end
$var wire 5 e A2 [4:0] $end
$var wire 5 f A3 [4:0] $end
$var wire 32 g WD [31:0] $end
$var wire 1 " clk $end
$var wire 5 h reg_sel [4:0] $end
$var wire 1 ( rst $end
$var wire 32 i reg_data [31:0] $end
$var wire 1 E RFWr $end
$var wire 32 j RD2 [31:0] $end
$var wire 32 k RD1 [31:0] $end
$var integer 32 l i [31:0] $end
$upscope $end
$scope module U_alu $end
$var wire 32 m A [31:0] $end
$var wire 32 n B [31:0] $end
$var wire 1 C Zero $end
$var wire 5 o ALUOp [4:0] $end
$var reg 32 p C [31:0] $end
$upscope $end
$scope module U_ctrl $end
$var wire 3 q Funct3 [2:0] $end
$var wire 7 r Funct7 [6:0] $end
$var wire 7 s Op [6:0] $end
$var wire 1 C Zero $end
$var reg 5 t ALUOp [4:0] $end
$var reg 1 R ALUSrc $end
$var reg 6 u EXTOp [5:0] $end
$var reg 1 / MemWrite $end
$var reg 3 v NPCOp [2:0] $end
$var reg 1 E RegWrite $end
$var reg 2 w WDSel [1:0] $end
$upscope $end
$upscope $end
$scope module U_imem $end
$var wire 30 x addr [31:2] $end
$var wire 32 y dout [31:0] $end
$upscope $end
$upscope $end
$upscope $end
$enddefinitions $end
#0
$dumpvars
b101010000000000000100010011 y
b0 x
b0 w
b0 v
b10000 u
b11 t
b10011 s
b10 r
b0 q
b1010100 p
b11 o
b1010100 n
b0 m
b100000 l
b0 k
b0 j
b0 i
b0 h
b1010100 g
b10 f
b10100 e
b0 d
b0 c
b100 b
b100 a
b0 `
b0 _
b100 ^
b0 ]
b1010100 \
b1010100 [
b10000 Z
b101010000000000 Y
b1000010 X
b101010 W
b1010100 V
b100001 U
b1010100 T
b11 S
1R
b1010100 Q
b10000 P
b0 O
b10 N
b101010000000000 M
b1010100 L
b100 K
b0 J
b10011 I
b0 H
b0 G
b0 F
1E
b0 D
0C
b1010100 B
b100001 A
b1010100 @
b1010100 ?
b101010000000000000100010011 >
b101010 =
b10 <
b0 ;
b0 :
b10100 9
b1000010 8
b101010000000000 7
b0 6
b0 5
b0 4
b1010100 3
b0 2
b1010100 1
b0 0
0/
b0 .
b1010100 -
b0 ,
b0 +
b101010000000000000100010011 *
b0 )
1(
b0 '
b10000000 &
b0 %
1$
b0 #
1"
b0 !
$end
#5
0"
#10
b1000 Q
b1000 n
b101010000000000 T
b101010000000000 g
b1000 ?
b1000 [
b1000 \
b101010000000000 -
b101010000000000 1
b101010000000000 3
b101010000000000 B
b101010000000000 p
b1010100 G
b1010100 ]
b1010100 k
b1010100 m
1R
b1111 S
b1111 o
b1111 t
b10000 P
b10000 Z
b10000 u
1E
b100000010001 M
b1000 L
b1000 9
b1000 e
b10 :
b10 d
b1 O
b1 q
b0 N
b0 r
b1000100000000100 =
b1000100000000100 W
b1 A
b1 U
b100000010001 7
b100000010001 Y
b10 8
b10 X
b1000 @
b1000 V
b100000010001000100010011 *
b100000010001000100010011 >
b100000010001000100010011 y
b1 x
b1000 K
b1000 a
b1000 b
b1000 ^
b100 .
b100 H
b100 _
b100 c
1"
0(
0$
#15
0"
#20
b10000111 Q
b10000111 n
b10000111 ?
b10000111 [
b10000111 \
b101010010000111 T
b101010010000111 g
1R
b11 S
b11 o
b11 t
b10000 P
b10000 Z
b10000 u
1E
b1000011100010000 M
b10000111 L
b111 9
b111 e
b0 O
b0 q
b100 N
b100 r
b1000010001000011 =
b1000010001000011 W
b1000001 A
b1000001 U
b1000011100010000 7
b1000011100010000 Y
b10000010 8
b10000010 X
b10000111 @
b10000111 V
b101010010000111 -
b101010010000111 1
b101010010000111 3
b101010010000111 B
b101010010000111 p
b1000011100010000000100010011 *
b1000011100010000000100010011 >
b1000011100010000000100010011 y
b10 x
b1100 K
b1100 a
b1100 b
b101010000000000 G
b101010000000000 ]
b101010000000000 k
b101010000000000 m
b1100 ^
b1000 .
b1000 H
b1000 _
b1000 c
1"
#25
0"
#30
b10000 Q
b10000 n
b1010100100001110000000000000000 T
b1010100100001110000000000000000 g
b10000 ?
b10000 [
b10000 \
1R
b1111 S
b1111 o
b1111 t
b10000 P
b10000 Z
b10000 u
1E
b1010100100001110000000000000000 -
b1010100100001110000000000000000 1
b1010100100001110000000000000000 3
b1010100100001110000000000000000 B
b1010100100001110000000000000000 p
b1000000010001 M
b10000 L
b10000 9
b10000 e
b1 O
b1 q
b0 N
b0 r
b1000100000001000 =
b1000100000001000 W
b1 A
b1 U
b1000000010001 7
b1000000010001 Y
b10 8
b10 X
b10000 @
b10000 V
b101010010000111 G
b101010010000111 ]
b101010010000111 k
b101010010000111 m
b1000000010001000100010011 *
b1000000010001000100010011 >
b1000000010001000100010011 y
b11 x
b10000 K
b10000 a
b10000 b
b10000 ^
b1100 .
b1100 H
b1100 _
b1100 c
1"
#35
0"
#40
b110101 Q
b110101 n
b110101 ?
b110101 [
b110101 \
b110101 T
b110101 g
1R
b11 S
b11 o
b11 t
b10000 P
b10000 Z
b10000 u
1E
0C
b11010100000000 M
b110101 L
b11 <
b11 f
b10101 9
b10101 e
b0 :
b0 d
b0 O
b0 q
b1 N
b1 r
b10000011010 =
b10000011010 W
b10000010001 A
b10000010001 U
b11010100000000 7
b11010100000000 Y
b100011 8
b100011 X
b110101 @
b110101 V
b110101 -
b110101 1
b110101 3
b110101 B
b110101 p
b11010100000000000110010011 *
b11010100000000000110010011 >
b11010100000000000110010011 y
b100 x
b10100 K
b10100 a
b10100 b
b0 G
b0 ]
b0 k
b0 m
b10100 ^
b10000 .
b10000 H
b10000 _
b10000 c
1"
#45
0"
#50
b1000 Q
b1000 n
b11010100000000 T
b11010100000000 g
b1000 ?
b1000 [
b1000 \
b11010100000000 -
b11010100000000 1
b11010100000000 3
b11010100000000 B
b11010100000000 p
b110101 G
b110101 ]
b110101 k
b110101 m
1R
b1111 S
b1111 o
b1111 t
b10000 P
b10000 Z
b10000 u
1E
b100000011001 M
b1000 L
b1000 9
b1000 e
b11 :
b11 d
b1 O
b1 q
b0 N
b0 r
b1100100000000100 =
b1100100000000100 W
b10000000001 A
b10000000001 U
b100000011001 7
b100000011001 Y
b11 8
b11 X
b1000 @
b1000 V
b100000011001000110010011 *
b100000011001000110010011 >
b100000011001000110010011 y
b101 x
b11000 K
b11000 a
b11000 b
b11000 ^
b10100 .
b10100 H
b10100 _
b10100 c
1"
#55
0"
#60
b110000 Q
b110000 n
b110000 ?
b110000 [
b110000 \
b11010100110000 T
b11010100110000 g
1R
b11 S
b11 o
b11 t
b10000 P
b10000 Z
b10000 u
1E
b11000000011000 M
b110000 L
b10000 9
b10000 e
b0 O
b0 q
b1 N
b1 r
b1100000000011000 =
b1100000000011000 W
b10000010001 A
b10000010001 U
b11000000011000 7
b11000000011000 Y
b100011 8
b100011 X
b110000 @
b110000 V
b11010100110000 -
b11010100110000 1
b11010100110000 3
b11010100110000 B
b11010100110000 p
b11000000011000000110010011 *
b11000000011000000110010011 >
b11000000011000000110010011 y
b110 x
b11100 K
b11100 a
b11100 b
b11010100000000 G
b11010100000000 ]
b11010100000000 k
b11010100000000 m
b11100 ^
b11000 .
b11000 H
b11000 _
b11000 c
1"
#65
0"
#70
b1010100100001110011010100110000 T
b1010100100001110011010100110000 g
b0 ?
b0 [
b0 \
b11010100110000 Q
b11010100110000 n
b11010100110000 ,
b11010100110000 0
b11010100110000 5
b11010100110000 F
b11010100110000 j
0R
b11 S
b11 o
b11 t
b0 P
b0 Z
b0 u
1E
b1010100100001110011010100110000 -
b1010100100001110011010100110000 1
b1010100100001110011010100110000 3
b1010100100001110011010100110000 B
b1010100100001110011010100110000 p
b1100010000 M
b11 L
b10 <
b10 f
b11 9
b11 e
b10 :
b10 d
b0 N
b0 r
b110011 I
b110011 s
b1000010000000001 =
b1000010000000001 W
b1 A
b1 U
b1100010000 7
b1100010000 Y
b10 8
b10 X
b11 @
b11 V
b1010100100001110000000000000000 G
b1010100100001110000000000000000 ]
b1010100100001110000000000000000 k
b1010100100001110000000000000000 m
b1100010000000100110011 *
b1100010000000100110011 >
b1100010000000100110011 y
b111 x
b100000 K
b100000 a
b100000 b
b100000 ^
b11100 .
b11100 H
b11100 _
b11100 c
1"
#75
0"
#80
b110000000 ?
b110000000 [
b110000000 \
b110000000 T
b110000000 g
0C
b110000000 Q
b110000000 n
b1010100100001110011010100110000 ,
b1010100100001110011010100110000 0
b1010100100001110011010100110000 5
b1010100100001110011010100110000 F
b1010100100001110011010100110000 j
b1000 P
b1000 Z
b1000 u
1R
1/
b11 S
b11 o
b11 t
0E
b11000001000000010 M
b110000010 L
b0 <
b0 f
b10 9
b10 e
b0 :
b0 d
b10 O
b10 q
b1100 N
b1100 r
b100011 I
b100011 s
b1000011000001 =
b1000011000001 W
b11000000 A
b11000000 U
b11000001000000010 7
b11000001000000010 Y
b110000000 8
b110000000 X
b110000010 @
b110000010 V
b110000000 -
b110000000 1
b110000000 3
b110000000 B
b110000000 p
b11000001000000010000000100011 *
b11000001000000010000000100011 >
b11000001000000010000000100011 y
b1000 x
b100100 K
b100100 a
b100100 b
b0 G
b0 ]
b0 k
b0 m
b100100 ^
b100000 .
b100000 H
b100000 _
b100000 c
1"
#85
0"
#90
b1000 T
b1000 g
b1000 -
b1000 1
b1000 3
b1000 B
b1000 p
b1000 Q
b1000 n
b1000 ?
b1000 [
b1000 \
b0 +
b0 2
b0 4
b0 ,
b0 0
b0 5
b0 F
b0 j
1E
1R
b11 S
b11 o
b11 t
b10000 P
b10000 Z
b10000 u
0/
b100000000000 M
b1000 L
b1011 <
b1011 f
b1000 9
b1000 e
b0 O
b0 q
b0 N
b0 r
b10011 I
b10011 s
b100 =
b100 W
b10000000101 A
b10000000101 U
b100000000000 7
b100000000000 Y
b1011 8
b1011 X
b1000 @
b1000 V
b100000000000010110010011 *
b100000000000010110010011 >
b100000000000010110010011 y
b1001 x
b101000 K
b101000 a
b101000 b
b101000 ^
b100100 .
b100100 H
b100100 _
b100100 c
1"
#95
0"
#100
b1010100100001110011010100110000 +
b1010100100001110011010100110000 2
b1010100100001110011010100110000 4
b110000000 -
b110000000 1
b110000000 3
b110000000 B
b110000000 p
b110000000 Q
b110000000 n
b1010100100001110011010100110000 T
b1010100100001110011010100110000 g
b110000000 ?
b110000000 [
b110000000 \
b1 D
b1 w
1R
b11 S
b11 o
b11 t
b10000 P
b10000 Z
b10000 u
1E
b11000000000000010 M
b110000000 L
b1111 <
b1111 f
b0 9
b0 e
b10 O
b10 q
b1100 N
b1100 r
b11 I
b11 s
b1000011000000 =
b1000011000000 W
b10011000111 A
b10011000111 U
b11000000000000010 7
b11000000000000010 Y
b110001111 8
b110001111 X
b110000000 @
b110000000 V
b11000000000000010011110000011 *
b11000000000000010011110000011 >
b11000000000000010011110000011 y
b1010 x
b101100 K
b101100 a
b101100 b
b101100 ^
b101000 .
b101000 H
b101000 _
b101000 c
1"
#105
0"
#110
b0 +
b0 2
b0 4
b0 T
b0 g
b0 ?
b0 [
b0 \
1C
b0 -
b0 1
b0 3
b0 B
b0 p
b0 Q
b0 n
b0 D
b0 w
0R
b11 S
b11 o
b11 t
b0 P
b0 Z
b0 u
1E
b0 M
b0 L
b10 <
b10 f
b0 O
b0 q
b0 N
b0 r
b110011 I
b110011 s
b0 =
b0 W
b1 A
b1 U
b0 7
b0 Y
b10 8
b10 X
b0 @
b0 V
b100110011 *
b100110011 >
b100110011 y
b1011 x
b110000 K
b110000 a
b110000 b
b110000 ^
b101100 .
b101100 H
b101100 _
b101100 c
1"
#115
0"
#120
b1111 T
b1111 g
0C
b1111 -
b1111 1
b1111 3
b1111 B
b1111 p
b1111 Q
b1111 n
b1111 ?
b1111 [
b1111 \
b1010100100001110011010100110000 ,
b1010100100001110011010100110000 0
b1010100100001110011010100110000 5
b1010100100001110011010100110000 F
b1010100100001110011010100110000 j
b10000 P
b10000 Z
b10000 u
1R
b11 S
b11 o
b11 t
1E
b111100000000 M
b1111 L
b100 <
b100 f
b1111 9
b1111 e
b10011 I
b10011 s
b10000000111 =
b10000000111 W
b10 A
b10 U
b111100000000 7
b111100000000 Y
b100 8
b100 X
b1111 @
b1111 V
b111100000000001000010011 *
b111100000000001000010011 >
b111100000000001000010011 y
b1100 x
b110100 K
b110100 a
b110100 b
b110100 ^
b110000 .
b110000 H
b110000 _
b110000 c
1"
#125
0"
#130
b0 T
b0 g
b0 ?
b0 [
b0 \
1C
b0 -
b0 1
b0 3
b0 B
b0 p
b1111 ,
b1111 0
b1111 5
b1111 F
b1111 j
b1010100100001110011010100110000 G
b1010100100001110011010100110000 ]
b1010100100001110011010100110000 k
b1010100100001110011010100110000 m
0R
b1110 S
b1110 o
b1110 t
b0 P
b0 Z
b0 u
1E
b10001111111 M
b100 L
b111 <
b111 f
b100 9
b100 e
b1111 :
b1111 d
b111 O
b111 q
b110011 I
b110011 s
b111111100000000010 =
b111111100000000010 W
b10000000011 A
b10000000011 U
b10001111111 7
b10001111111 Y
b111 8
b111 X
b100 @
b100 V
b10001111111001110110011 *
b10001111111001110110011 >
b10001111111001110110011 y
b1101 x
b111000 K
b111000 a
b111000 b
b111000 ^
b110100 .
b110100 H
b110100 _
b110100 c
1"
#135
0"
#140
b10 ?
b10 [
b10 \
b10 Q
b10 n
b0 ,
b0 0
b0 5
b0 F
b0 j
b0 G
b0 ]
b0 k
b0 m
b10000 P
b10000 Z
b10000 u
1R
b1111 S
b1111 o
b1111 t
1E
b1000010001 M
b10 L
b1001 <
b1001 f
b10 9
b10 e
b10 :
b10 d
b1 O
b1 q
b10011 I
b10011 s
b1000100000000001 =
b1000100000000001 W
b10000000100 A
b10000000100 U
b1000010001 7
b1000010001 Y
b1001 8
b1001 X
b10 @
b10 V
b1000010001010010010011 *
b1000010001010010010011 >
b1000010001010010010011 y
b1110 x
b111100 K
b111100 a
b111100 b
b111100 ^
b111000 .
b111000 H
b111000 _
b111000 c
1"
#145
0"
#150
b0 ?
b0 [
b0 \
b0 Q
b0 n
0R
b10000 S
b10000 o
b10000 t
b0 P
b0 Z
b0 u
1E
b100100111101 M
b1001 L
b111 <
b111 f
b1001 9
b1001 e
b111 :
b111 d
b101 O
b101 q
b110011 I
b110011 s
b11110110000000100 =
b11110110000000100 W
b10000000011 A
b10000000011 U
b100100111101 7
b100100111101 Y
b111 8
b111 X
b1001 @
b1001 V
b100100111101001110110011 *
b100100111101001110110011 >
b100100111101001110110011 y
b1111 x
b1000000 K
b1000000 a
b1000000 b
b1000000 ^
b111100 .
b111100 H
b111100 _
b111100 c
1"
#155
0"
#160
b100 Q
b100 n
b11110000 T
b11110000 g
b100 ?
b100 [
b100 \
0C
b11110000 -
b11110000 1
b11110000 3
b11110000 B
b11110000 p
b1111 ,
b1111 0
b1111 5
b1111 F
b1111 j
b1111 G
b1111 ]
b1111 k
b1111 m
b10000 P
b10000 Z
b10000 u
1R
b1111 S
b1111 o
b1111 t
1E
b10000100001 M
b100 L
b101 <
b101 f
b100 9
b100 e
b100 :
b100 d
b1 O
b1 q
b10011 I
b10011 s
b10000100000000010 =
b10000100000000010 W
b10000000010 A
b10000000010 U
b10000100001 7
b10000100001 Y
b101 8
b101 X
b100 @
b100 V
b10000100001001010010011 *
b10000100001001010010011 >
b10000100001001010010011 y
b10000 x
b1000100 K
b1000100 a
b1000100 b
b1000100 ^
b1000000 .
b1000000 H
b1000000 _
b1000000 c
1"
#165
0"
#170
b0 T
b0 g
b0 ?
b0 [
b0 \
1C
b0 Q
b0 n
b0 -
b0 1
b0 3
b0 B
b0 p
b0 ,
b0 0
b0 5
b0 F
b0 j
b0 G
b0 ]
b0 k
b0 m
0R
b11 S
b11 o
b11 t
b0 P
b0 Z
b0 u
1E
b10000 M
b0 L
b1100 <
b1100 f
b0 9
b0 e
b10 :
b10 d
b0 O
b0 q
b110011 I
b110011 s
b1000000000000000 =
b1000000000000000 W
b110 A
b110 U
b10000 7
b10000 Y
b1100 8
b1100 X
b0 @
b0 V
b10000011000110011 *
b10000011000110011 >
b10000011000110011 y
b10001 x
b1001000 K
b1001000 a
b1001000 b
b1001000 ^
b1000100 .
b1000100 H
b1000100 _
b1000100 c
1"
#175
0"
#180
b111000 M
b1101 <
b1101 f
b111 :
b111 d
b11100000000000000 =
b11100000000000000 W
b10000000110 A
b10000000110 U
b111000 7
b111000 Y
b1101 8
b1101 X
b111000011010110011 *
b111000011010110011 >
b111000011010110011 y
b10010 x
b1001100 K
b1001100 a
b1001100 b
b1001100 ^
b1001000 .
b1001000 H
b1001000 _
b1001000 c
1"
#185
0"
#190
b1 T
b1 g
0C
b1 -
b1 1
b1 3
b1 B
b1 p
b1 Q
b1 n
b1 ?
b1 [
b1 \
b10000 P
b10000 Z
b10000 u
1R
b11 S
b11 o
b11 t
1E
b100010000 M
b1 L
b11 <
b11 f
b1 9
b1 e
b10 :
b10 d
b10011 I
b10011 s
b1000010000000000 =
b1000010000000000 W
b10000000001 A
b10000000001 U
b100010000 7
b100010000 Y
b11 8
b11 X
b1 @
b1 V
b100010000000110010011 *
b100010000000110010011 >
b100010000000110010011 y
b10011 x
b1010000 K
b1010000 a
b1010000 b
b1010000 ^
b1001100 .
b1001100 H
b1001100 _
b1001100 c
1"
#195
0"
#200
b11111111111111111111111111111001 T
b11111111111111111111111111111001 g
b101100 ?
b101100 [
b101100 \
b0 J
b0 `
b0 v
0C
b1000 Q
b1000 n
b11111111111111111111111111111001 -
b11111111111111111111111111111001 1
b11111111111111111111111111111001 3
b11111111111111111111111111111001 B
b11111111111111111111111111111001 p
b1000 ,
b1000 0
b1000 5
b1000 F
b1000 j
b1 G
b1 ]
b1 k
b1 m
0R
b100 S
b100 o
b100 t
b100 P
b100 Z
b100 u
0E
b10101100011000 M
b101011 L
b1100 <
b1100 f
b1011 9
b1011 e
b11 :
b11 d
b1 N
b1 r
b1100011 I
b1100011 s
b1100010000010101 =
b1100010000010101 W
b10110 A
b10110 U
b10101100011000 7
b10101100011000 Y
b101100 8
b101100 X
b101011 @
b101011 V
b10101100011000011001100011 *
b10101100011000011001100011 >
b10101100011000011001100011 y
b10100 x
b1010100 K
b1010100 a
b1010100 b
b1010100 ^
b1010000 .
b1010000 H
b1010000 _
b1010000 c
1"
#205
0"
#210
b110000 T
b110000 g
b0 ?
b0 [
b0 \
0C
b11110000 Q
b11110000 n
b110000 -
b110000 1
b110000 3
b110000 B
b110000 p
b11110000 ,
b11110000 0
b11110000 5
b11110000 F
b11110000 j
b1010100100001110011010100110000 G
b1010100100001110011010100110000 ]
b1010100100001110011010100110000 k
b1010100100001110011010100110000 m
1E
b1110 S
b1110 o
b1110 t
b0 P
b0 Z
b0 u
b10101111111 M
b101 L
b1000 <
b1000 f
b101 9
b101 e
b1111 :
b1111 d
b111 O
b111 q
b0 N
b0 r
b110011 I
b110011 s
b111111110000000010 =
b111111110000000010 W
b100 A
b100 U
b10101111111 7
b10101111111 Y
b1000 8
b1000 X
b101 @
b101 V
b10101111111010000110011 *
b10101111111010000110011 >
b10101111111010000110011 y
b10101 x
b1011000 K
b1011000 a
b1011000 b
b1011000 ^
b1010100 .
b1010100 H
b1010100 _
b1010100 c
1"
#215
0"
#220
b100 T
b100 g
b10 ?
b10 [
b10 \
b10 Q
b10 n
b100 -
b100 1
b100 3
b100 B
b100 p
b0 ,
b0 0
b0 5
b0 F
b0 j
b1 G
b1 ]
b1 k
b1 m
b10000 P
b10000 Z
b10000 u
1R
b1111 S
b1111 o
b1111 t
1E
b1000011001 M
b10 L
b1010 <
b1010 f
b10 9
b10 e
b11 :
b11 d
b1 O
b1 q
b10011 I
b10011 s
b1100100000000001 =
b1100100000000001 W
b101 A
b101 U
b1000011001 7
b1000011001 Y
b1010 8
b1010 X
b10 @
b10 V
b1000011001010100010011 *
b1000011001010100010011 >
b1000011001010100010011 y
b10110 x
b1011100 K
b1011100 a
b1011100 b
b1011100 ^
b1011000 .
b1011000 H
b1011000 _
b1011000 c
1"
#225
0"
#230
b11 T
b11 g
b0 ?
b0 [
b0 \
b100 Q
b100 n
b11 -
b11 1
b11 3
b11 B
b11 p
b100 ,
b100 0
b100 5
b100 F
b100 j
b110000 G
b110000 ]
b110000 k
b110000 m
0R
b10000 S
b10000 o
b10000 t
b0 P
b0 Z
b0 u
1E
b101001000101 M
b1010 L
b1000 <
b1000 f
b1010 9
b1010 e
b1000 :
b1000 d
b101 O
b101 q
b110011 I
b110011 s
b100010100000000101 =
b100010100000000101 W
b100 A
b100 U
b101001000101 7
b101001000101 Y
b1000 8
b1000 X
b1010 @
b1010 V
b101001000101010000110011 *
b101001000101010000110011 >
b101001000101010000110011 y
b10111 x
b1100000 K
b1100000 a
b1100000 b
b1100000 ^
b1011100 .
b1011100 H
b1011100 _
b1011100 c
1"
#235
0"
#240
b1 T
b1 g
b11 Q
b11 n
b11 ,
b11 0
b11 5
b11 F
b11 j
b1010 S
b1010 o
b1010 t
1E
0C
b100001101010 M
b1000 L
b1110 <
b1110 f
b1000 9
b1000 e
b1101 :
b1101 d
b10 O
b10 q
b110101000000000100 =
b110101000000000100 W
b111 A
b111 U
b100001101010 7
b100001101010 Y
b1110 8
b1110 X
b1000 @
b1000 V
b1 -
b1 1
b1 3
b1 B
b1 p
b100001101010011100110011 *
b100001101010011100110011 >
b100001101010011100110011 y
b11000 x
b1100100 K
b1100100 a
b1100100 b
b0 G
b0 ]
b0 k
b0 m
b1100100 ^
b1100000 .
b1100000 H
b1100000 _
b1100000 c
1"
#245
0"
#250
b1 T
b1 g
b1100 ?
b1100 [
b1100 \
b0 Q
b0 n
b1 -
b1 1
b1 3
b1 B
b1 p
b0 ,
b0 0
b0 5
b0 F
b0 j
b1 G
b1 ]
b1 k
b1 m
b100 P
b100 Z
b100 u
b100 S
b100 o
b100 t
0E
b1110000 M
b0 L
b1100 <
b1100 f
b0 9
b0 e
b1110 :
b1110 d
b0 O
b0 q
b1100011 I
b1100011 s
b111000000000000000 =
b111000000000000000 W
b110 A
b110 U
b1110000 7
b1110000 Y
b1100 8
b1100 X
b0 @
b0 V
b1110000011001100011 *
b1110000011001100011 >
b1110000011001100011 y
b11001 x
b1101000 K
b1101000 a
b1101000 b
b1101000 ^
b1100100 .
b1100100 H
b1100100 _
b1100100 c
1"
#255
0"
#260
b11 T
b11 g
b0 ?
b0 [
b0 \
b11 -
b11 1
b11 3
b11 B
b11 p
b11 G
b11 ]
b11 k
b11 m
1E
b11 S
b11 o
b11 t
b0 P
b0 Z
b0 u
b1000000 M
b1101 <
b1101 f
b1000 :
b1000 d
b110011 I
b110011 s
b100000000000000000 =
b100000000000000000 W
b10000000110 A
b10000000110 U
b1000000 7
b1000000 Y
b1101 8
b1101 X
b1000000011010110011 *
b1000000011010110011 >
b1000000011010110011 y
b11010 x
b1101100 K
b1101100 a
b1101100 b
b1101100 ^
b1101000 .
b1101000 H
b1101000 _
b1101000 c
1"
#265
0"
#270
b1 T
b1 g
b1 -
b1 1
b1 3
b1 B
b1 p
b1 G
b1 ]
b1 k
b1 m
b11000 M
b1100 <
b1100 f
b11 :
b11 d
b1100000000000000 =
b1100000000000000 W
b110 A
b110 U
b11000 7
b11000 Y
b1100 8
b1100 X
b11000011000110011 *
b11000011000110011 >
b11000011000110011 y
b11011 x
b1110000 K
b1110000 a
b1110000 b
b1110000 ^
b1101100 .
b1101100 H
b1101100 _
b1101100 c
1"
#275
0"
#280
b100 Q
b100 n
b111100000000 T
b111100000000 g
b100 ?
b100 [
b100 \
b111100000000 -
b111100000000 1
b111100000000 3
b111100000000 B
b111100000000 p
b1111 ,
b1111 0
b1111 5
b1111 F
b1111 j
b11110000 G
b11110000 ]
b11110000 k
b11110000 m
b10000 P
b10000 Z
b10000 u
1R
b1111 S
b1111 o
b1111 t
1E
b10000101001 M
b100 L
b101 <
b101 f
b100 9
b100 e
b101 :
b101 d
b1 O
b1 q
b10011 I
b10011 s
b10100100000000010 =
b10100100000000010 W
b10000000010 A
b10000000010 U
b10000101001 7
b10000101001 Y
b101 8
b101 X
b100 @
b100 V
b10000101001001010010011 *
b10000101001001010010011 >
b10000101001001010010011 y
b11100 x
b1110100 K
b1110100 a
b1110100 b
b1110100 ^
b1110000 .
b1110000 H
b1110000 _
b1110000 c
1"
#285
0"
#290
b1 Q
b1 n
b10 T
b10 g
b1 ?
b1 [
b1 \
b0 ,
b0 0
b0 5
b0 F
b0 j
1R
b11 S
b11 o
b11 t
b10000 P
b10000 Z
b10000 u
1E
b10 -
b10 1
b10 3
b10 B
b10 p
b100011000 M
b1 L
b11 <
b11 f
b1 9
b1 e
b11 :
b11 d
b0 O
b0 q
b1100010000000000 =
b1100010000000000 W
b10000000001 A
b10000000001 U
b100011000 7
b100011000 Y
b11 8
b11 X
b1 @
b1 V
b1 G
b1 ]
b1 k
b1 m
b100011000000110010011 *
b100011000000110010011 >
b100011000000110010011 y
b11101 x
b1111000 K
b1111000 a
b1111000 b
b1111000 ^
b1110100 .
b1110100 H
b1110100 _
b1110100 c
1"
#295
0"
#300
b11111111111111111111111111011000 ?
b11111111111111111111111111011000 [
b11111111111111111111111111011000 \
b1111100 T
b1111100 g
1C
b0 Q
b0 n
b10 D
b10 w
b10 J
b10 `
b10 v
0R
b0 S
b0 o
b0 t
b1 P
b1 Z
b1 u
1E
b11111101100111111111 M
b111111011001 L
b0 <
b0 f
b11001 9
b11001 e
b11111 :
b11111 d
b111 O
b111 q
b1111110 N
b1111110 r
b1101111 I
b1101111 s
b11111111111111101100 =
b11111111111111101100 W
b101111100000 A
b101111100000 U
b11111101100111111111 7
b11111101100111111111 Y
b111111000000 8
b111111000000 X
b111111011001 @
b111111011001 V
b0 -
b0 1
b0 3
b0 B
b0 p
b11111101100111111111000001101111 *
b11111101100111111111000001101111 >
b11111101100111111111000001101111 y
b11110 x
b1010000 K
b1010000 a
b1010000 b
b0 G
b0 ]
b0 k
b0 m
b1111100 ^
b1111000 .
b1111000 H
b1111000 _
b1111000 c
1"
#305
0"
